-- Merging decision tree log ---
manifest
ADDED from C:\Users\igjol\Documents\lonely_car\Temp\gradleOut\src\main\AndroidManifest.xml:2:1-32:12
	package
		ADDED from C:\Users\igjol\Documents\lonely_car\Temp\gradleOut\src\main\AndroidManifest.xml:2:70-98
		INJECTED from C:\Users\igjol\Documents\lonely_car\Temp\gradleOut\src\main\AndroidManifest.xml
		INJECTED from C:\Users\igjol\Documents\lonely_car\Temp\gradleOut\src\main\AndroidManifest.xml
	android:versionName
		INJECTED from C:\Users\igjol\Documents\lonely_car\Temp\gradleOut\src\main\AndroidManifest.xml
		INJECTED from C:\Users\igjol\Documents\lonely_car\Temp\gradleOut\src\main\AndroidManifest.xml
	xmlns:tools
		ADDED from C:\Users\igjol\Documents\lonely_car\Temp\gradleOut\src\main\AndroidManifest.xml:2:99-145
	xmlns:android
		ADDED from C:\Users\igjol\Documents\lonely_car\Temp\gradleOut\src\main\AndroidManifest.xml:2:11-69
	android:versionCode
		INJECTED from C:\Users\igjol\Documents\lonely_car\Temp\gradleOut\src\main\AndroidManifest.xml
		INJECTED from C:\Users\igjol\Documents\lonely_car\Temp\gradleOut\src\main\AndroidManifest.xml
	android:installLocation
		ADDED from C:\Users\igjol\Documents\lonely_car\Temp\gradleOut\src\main\AndroidManifest.xml:2:146-186
supports-screens
ADDED from C:\Users\igjol\Documents\lonely_car\Temp\gradleOut\src\main\AndroidManifest.xml:3:3-163
	android:largeScreens
		ADDED from C:\Users\igjol\Documents\lonely_car\Temp\gradleOut\src\main\AndroidManifest.xml:3:78-105
	android:smallScreens
		ADDED from C:\Users\igjol\Documents\lonely_car\Temp\gradleOut\src\main\AndroidManifest.xml:3:21-48
	android:normalScreens
		ADDED from C:\Users\igjol\Documents\lonely_car\Temp\gradleOut\src\main\AndroidManifest.xml:3:49-77
	android:xlargeScreens
		ADDED from C:\Users\igjol\Documents\lonely_car\Temp\gradleOut\src\main\AndroidManifest.xml:3:106-134
	android:anyDensity
		ADDED from C:\Users\igjol\Documents\lonely_car\Temp\gradleOut\src\main\AndroidManifest.xml:3:135-160
application
ADDED from C:\Users\igjol\Documents\lonely_car\Temp\gradleOut\src\main\AndroidManifest.xml:4:3-26:17
MERGED from [:com.android.support.animated-vector-drawable-25.3.1:] C:\Users\igjol\.android\build-cache\f4e3f0ebcdcfd45cac4bbbd6d5b0b9f60a65a938\output\AndroidManifest.xml:26:5-20
MERGED from [:com.android.support.appcompat-v7-25.3.1:] C:\Users\igjol\.android\build-cache\09a6b5f911714eb2fc8486690cd0eb12b7bb462f\output\AndroidManifest.xml:29:5-20
MERGED from [:com.android.support.cardview-v7-25.3.1:] C:\Users\igjol\.android\build-cache\161561bf3cd93a8b812b9189061afa51bd382ae5\output\AndroidManifest.xml:26:5-20
MERGED from [:com.android.support.customtabs-25.3.1:] C:\Users\igjol\.android\build-cache\0b737312363d299f7c5851973be79fd3dd4b9e0b\output\AndroidManifest.xml:26:5-20
MERGED from [:com.android.support.support-compat-25.3.1:] C:\Users\igjol\.android\build-cache\d5120e22f495e59c3e9c557e171b1be194098a70\output\AndroidManifest.xml:29:5-20
MERGED from [:com.android.support.support-core-ui-25.3.1:] C:\Users\igjol\.android\build-cache\8e33e2222076c52b98ec2dacf7d7252c0e46e34f\output\AndroidManifest.xml:29:5-20
MERGED from [:com.android.support.support-core-utils-25.3.1:] C:\Users\igjol\.android\build-cache\ee8ebe9bdb14797cb11866c572620f0a1fa43695\output\AndroidManifest.xml:29:5-20
MERGED from [:com.android.support.support-fragment-25.3.1:] C:\Users\igjol\.android\build-cache\318b881c0f11950f59b27c18952fdea2bb058cb3\output\AndroidManifest.xml:29:5-20
MERGED from [:com.android.support.support-media-compat-25.3.1:] C:\Users\igjol\.android\build-cache\63a492f78ac8a1e5961fea34cdbbabf0bae11fbd\output\AndroidManifest.xml:29:5-20
MERGED from [:com.android.support.support-v4-25.3.1:] C:\Users\igjol\.android\build-cache\62b0c18efde074a324b989055d0be3fa87c5825b\output\AndroidManifest.xml:29:5-20
MERGED from [:com.android.support.support-vector-drawable-25.3.1:] C:\Users\igjol\.android\build-cache\727a4ae161a37792eb29d52754dafbda8e3d0eca\output\AndroidManifest.xml:26:5-20
MERGED from [:facebook-android-wrapper-7.12.1:] C:\Users\igjol\.android\build-cache\11f3672cc4ce29af16150810449e4f70224c8725\output\AndroidManifest.xml:28:5-20
MERGED from [:facebook-applinks:] C:\Users\igjol\.android\build-cache\d59745c1fe614938dfc4ed1b8cba4c8ef73261c1\output\AndroidManifest.xml:28:5-29:19
MERGED from [:facebook-common:] C:\Users\igjol\.android\build-cache\27f0c52cadd7584f699284290b5a37851150dd63\output\AndroidManifest.xml:28:5-34:19
MERGED from [:facebook-core:] C:\Users\igjol\.android\build-cache\43e05f3dcdfb60a6b8a8c4a22494c906b4d299cc\output\AndroidManifest.xml:28:5-51:19
MERGED from [:facebook-login:] C:\Users\igjol\.android\build-cache\eeed42f683254407df5f51222215c2aa4134581e\output\AndroidManifest.xml:28:5-29:19
MERGED from [:facebook-messenger:] C:\Users\igjol\.android\build-cache\93ce31fbab35bfcecdfe7f68a99cfcbcf3ba9ce1\output\AndroidManifest.xml:28:5-29:19
MERGED from [:facebook-places:] C:\Users\igjol\.android\build-cache\d1eb6e28e446014883dee1216b800401925c6bfc\output\AndroidManifest.xml:28:5-29:19
MERGED from [:facebook-share:] C:\Users\igjol\.android\build-cache\aad6bf5965bc1340168148c290d2d156b73daf08\output\AndroidManifest.xml:28:5-29:19
	android:label
		ADDED from C:\Users\igjol\Documents\lonely_car\Temp\gradleOut\src\main\AndroidManifest.xml:4:92-124
	android:supportsRtl
		ADDED from [:facebook-applinks:] C:\Users\igjol\.android\build-cache\d59745c1fe614938dfc4ed1b8cba4c8ef73261c1\output\AndroidManifest.xml:28:18-44
	android:icon
		ADDED from C:\Users\igjol\Documents\lonely_car\Temp\gradleOut\src\main\AndroidManifest.xml:4:58-91
	android:banner
		ADDED from C:\Users\igjol\Documents\lonely_car\Temp\gradleOut\src\main\AndroidManifest.xml:4:147-184
	android:theme
		ADDED from C:\Users\igjol\Documents\lonely_car\Temp\gradleOut\src\main\AndroidManifest.xml:4:16-57
	android:isGame
		ADDED from C:\Users\igjol\Documents\lonely_car\Temp\gradleOut\src\main\AndroidManifest.xml:4:125-146
activity#com.unity3d.player.UnityPlayerActivity
ADDED from C:\Users\igjol\Documents\lonely_car\Temp\gradleOut\src\main\AndroidManifest.xml:5:5-12:16
	android:screenOrientation
		ADDED from C:\Users\igjol\Documents\lonely_car\Temp\gradleOut\src\main\AndroidManifest.xml:5:102-140
	android:label
		ADDED from C:\Users\igjol\Documents\lonely_car\Temp\gradleOut\src\main\AndroidManifest.xml:5:69-101
	android:hardwareAccelerated
		ADDED from C:\Users\igjol\Documents\lonely_car\Temp\gradleOut\src\main\AndroidManifest.xml:5:355-390
	android:launchMode
		ADDED from C:\Users\igjol\Documents\lonely_car\Temp\gradleOut\src\main\AndroidManifest.xml:5:141-172
	android:configChanges
		ADDED from C:\Users\igjol\Documents\lonely_car\Temp\gradleOut\src\main\AndroidManifest.xml:5:173-354
	android:name
		ADDED from C:\Users\igjol\Documents\lonely_car\Temp\gradleOut\src\main\AndroidManifest.xml:5:15-68
intent-filter#android.intent.action.MAIN+android.intent.category.LAUNCHER+android.intent.category.LEANBACK_LAUNCHER
ADDED from C:\Users\igjol\Documents\lonely_car\Temp\gradleOut\src\main\AndroidManifest.xml:6:7-10:23
action#android.intent.action.MAIN
ADDED from C:\Users\igjol\Documents\lonely_car\Temp\gradleOut\src\main\AndroidManifest.xml:7:9-61
	android:name
		ADDED from C:\Users\igjol\Documents\lonely_car\Temp\gradleOut\src\main\AndroidManifest.xml:7:17-58
category#android.intent.category.LAUNCHER
ADDED from C:\Users\igjol\Documents\lonely_car\Temp\gradleOut\src\main\AndroidManifest.xml:8:9-69
	android:name
		ADDED from C:\Users\igjol\Documents\lonely_car\Temp\gradleOut\src\main\AndroidManifest.xml:8:19-66
category#android.intent.category.LEANBACK_LAUNCHER
ADDED from C:\Users\igjol\Documents\lonely_car\Temp\gradleOut\src\main\AndroidManifest.xml:9:9-78
	android:name
		ADDED from C:\Users\igjol\Documents\lonely_car\Temp\gradleOut\src\main\AndroidManifest.xml:9:19-75
meta-data#unityplayer.UnityActivity
ADDED from C:\Users\igjol\Documents\lonely_car\Temp\gradleOut\src\main\AndroidManifest.xml:11:7-82
	android:value
		ADDED from C:\Users\igjol\Documents\lonely_car\Temp\gradleOut\src\main\AndroidManifest.xml:11:59-79
	android:name
		ADDED from C:\Users\igjol\Documents\lonely_car\Temp\gradleOut\src\main\AndroidManifest.xml:11:18-58
activity#com.facebook.unity.FBUnityLoginActivity
ADDED from C:\Users\igjol\Documents\lonely_car\Temp\gradleOut\src\main\AndroidManifest.xml:13:5-301
	android:configChanges
		ADDED from C:\Users\igjol\Documents\lonely_car\Temp\gradleOut\src\main\AndroidManifest.xml:13:70-227
	android:theme
		ADDED from C:\Users\igjol\Documents\lonely_car\Temp\gradleOut\src\main\AndroidManifest.xml:13:228-298
	android:name
		ADDED from C:\Users\igjol\Documents\lonely_car\Temp\gradleOut\src\main\AndroidManifest.xml:13:15-69
activity#com.facebook.unity.FBUnityDialogsActivity
ADDED from C:\Users\igjol\Documents\lonely_car\Temp\gradleOut\src\main\AndroidManifest.xml:14:5-303
	android:configChanges
		ADDED from C:\Users\igjol\Documents\lonely_car\Temp\gradleOut\src\main\AndroidManifest.xml:14:72-229
	android:theme
		ADDED from C:\Users\igjol\Documents\lonely_car\Temp\gradleOut\src\main\AndroidManifest.xml:14:230-300
	android:name
		ADDED from C:\Users\igjol\Documents\lonely_car\Temp\gradleOut\src\main\AndroidManifest.xml:14:15-71
activity#com.facebook.unity.FBUnityAppLinkActivity
ADDED from C:\Users\igjol\Documents\lonely_car\Temp\gradleOut\src\main\AndroidManifest.xml:15:5-98
	android:exported
		ADDED from C:\Users\igjol\Documents\lonely_car\Temp\gradleOut\src\main\AndroidManifest.xml:15:72-95
	android:name
		ADDED from C:\Users\igjol\Documents\lonely_car\Temp\gradleOut\src\main\AndroidManifest.xml:15:15-71
activity#com.facebook.unity.FBUnityDeepLinkingActivity
ADDED from C:\Users\igjol\Documents\lonely_car\Temp\gradleOut\src\main\AndroidManifest.xml:16:5-102
	android:exported
		ADDED from C:\Users\igjol\Documents\lonely_car\Temp\gradleOut\src\main\AndroidManifest.xml:16:76-99
	android:name
		ADDED from C:\Users\igjol\Documents\lonely_car\Temp\gradleOut\src\main\AndroidManifest.xml:16:15-75
activity#com.facebook.unity.FBUnityGameRequestActivity
ADDED from C:\Users\igjol\Documents\lonely_car\Temp\gradleOut\src\main\AndroidManifest.xml:17:5-78
	android:name
		ADDED from C:\Users\igjol\Documents\lonely_car\Temp\gradleOut\src\main\AndroidManifest.xml:17:15-75
activity#com.facebook.unity.FBUnityCreateGameGroupActivity
ADDED from C:\Users\igjol\Documents\lonely_car\Temp\gradleOut\src\main\AndroidManifest.xml:18:5-82
	android:name
		ADDED from C:\Users\igjol\Documents\lonely_car\Temp\gradleOut\src\main\AndroidManifest.xml:18:15-79
activity#com.facebook.unity.FBUnityJoinGameGroupActivity
ADDED from C:\Users\igjol\Documents\lonely_car\Temp\gradleOut\src\main\AndroidManifest.xml:19:5-80
	android:name
		ADDED from C:\Users\igjol\Documents\lonely_car\Temp\gradleOut\src\main\AndroidManifest.xml:19:15-77
activity#com.facebook.unity.AppInviteDialogActivity
ADDED from C:\Users\igjol\Documents\lonely_car\Temp\gradleOut\src\main\AndroidManifest.xml:20:5-75
	android:name
		ADDED from C:\Users\igjol\Documents\lonely_car\Temp\gradleOut\src\main\AndroidManifest.xml:20:15-72
meta-data#com.facebook.sdk.ApplicationId
ADDED from C:\Users\igjol\Documents\lonely_car\Temp\gradleOut\src\main\AndroidManifest.xml:21:5-99
	android:value
		ADDED from C:\Users\igjol\Documents\lonely_car\Temp\gradleOut\src\main\AndroidManifest.xml:21:62-96
	android:name
		ADDED from C:\Users\igjol\Documents\lonely_car\Temp\gradleOut\src\main\AndroidManifest.xml:21:16-61
provider#com.facebook.FacebookContentProvider
ADDED from C:\Users\igjol\Documents\lonely_car\Temp\gradleOut\src\main\AndroidManifest.xml:22:5-172
	android:authorities
		ADDED from C:\Users\igjol\Documents\lonely_car\Temp\gradleOut\src\main\AndroidManifest.xml:22:67-145
	android:exported
		ADDED from C:\Users\igjol\Documents\lonely_car\Temp\gradleOut\src\main\AndroidManifest.xml:22:146-169
	android:name
		ADDED from C:\Users\igjol\Documents\lonely_car\Temp\gradleOut\src\main\AndroidManifest.xml:22:15-66
meta-data#unity.build-id
ADDED from C:\Users\igjol\Documents\lonely_car\Temp\gradleOut\src\main\AndroidManifest.xml:23:5-101
	android:value
		ADDED from C:\Users\igjol\Documents\lonely_car\Temp\gradleOut\src\main\AndroidManifest.xml:23:46-98
	android:name
		ADDED from C:\Users\igjol\Documents\lonely_car\Temp\gradleOut\src\main\AndroidManifest.xml:23:16-45
meta-data#unity.splash-mode
ADDED from C:\Users\igjol\Documents\lonely_car\Temp\gradleOut\src\main\AndroidManifest.xml:24:5-69
	android:value
		ADDED from C:\Users\igjol\Documents\lonely_car\Temp\gradleOut\src\main\AndroidManifest.xml:24:49-66
	android:name
		ADDED from C:\Users\igjol\Documents\lonely_car\Temp\gradleOut\src\main\AndroidManifest.xml:24:16-48
meta-data#unity.splash-enable
ADDED from C:\Users\igjol\Documents\lonely_car\Temp\gradleOut\src\main\AndroidManifest.xml:25:5-74
	android:value
		ADDED from C:\Users\igjol\Documents\lonely_car\Temp\gradleOut\src\main\AndroidManifest.xml:25:51-71
	android:name
		ADDED from C:\Users\igjol\Documents\lonely_car\Temp\gradleOut\src\main\AndroidManifest.xml:25:16-50
uses-feature#0x00020000
ADDED from C:\Users\igjol\Documents\lonely_car\Temp\gradleOut\src\main\AndroidManifest.xml:27:3-52
	android:glEsVersion
		ADDED from C:\Users\igjol\Documents\lonely_car\Temp\gradleOut\src\main\AndroidManifest.xml:27:17-49
uses-permission#android.permission.INTERNET
ADDED from C:\Users\igjol\Documents\lonely_car\Temp\gradleOut\src\main\AndroidManifest.xml:28:3-65
	android:name
		ADDED from C:\Users\igjol\Documents\lonely_car\Temp\gradleOut\src\main\AndroidManifest.xml:28:20-62
uses-feature#android.hardware.touchscreen
ADDED from C:\Users\igjol\Documents\lonely_car\Temp\gradleOut\src\main\AndroidManifest.xml:29:3-88
	android:required
		ADDED from C:\Users\igjol\Documents\lonely_car\Temp\gradleOut\src\main\AndroidManifest.xml:29:61-85
	android:name
		ADDED from C:\Users\igjol\Documents\lonely_car\Temp\gradleOut\src\main\AndroidManifest.xml:29:17-60
uses-feature#android.hardware.touchscreen.multitouch
ADDED from C:\Users\igjol\Documents\lonely_car\Temp\gradleOut\src\main\AndroidManifest.xml:30:3-99
	android:required
		ADDED from C:\Users\igjol\Documents\lonely_car\Temp\gradleOut\src\main\AndroidManifest.xml:30:72-96
	android:name
		ADDED from C:\Users\igjol\Documents\lonely_car\Temp\gradleOut\src\main\AndroidManifest.xml:30:17-71
uses-feature#android.hardware.touchscreen.multitouch.distinct
ADDED from C:\Users\igjol\Documents\lonely_car\Temp\gradleOut\src\main\AndroidManifest.xml:31:3-108
	android:required
		ADDED from C:\Users\igjol\Documents\lonely_car\Temp\gradleOut\src\main\AndroidManifest.xml:31:81-105
	android:name
		ADDED from C:\Users\igjol\Documents\lonely_car\Temp\gradleOut\src\main\AndroidManifest.xml:31:17-80
uses-sdk
INJECTED from C:\Users\igjol\Documents\lonely_car\Temp\gradleOut\src\main\AndroidManifest.xml reason: use-sdk injection requested
MERGED from [:com.android.support.animated-vector-drawable-25.3.1:] C:\Users\igjol\.android\build-cache\f4e3f0ebcdcfd45cac4bbbd6d5b0b9f60a65a938\output\AndroidManifest.xml:20:5-44
MERGED from [:com.android.support.appcompat-v7-25.3.1:] C:\Users\igjol\.android\build-cache\09a6b5f911714eb2fc8486690cd0eb12b7bb462f\output\AndroidManifest.xml:21:5-23:78
MERGED from [:com.android.support.cardview-v7-25.3.1:] C:\Users\igjol\.android\build-cache\161561bf3cd93a8b812b9189061afa51bd382ae5\output\AndroidManifest.xml:20:5-43
MERGED from [:com.android.support.customtabs-25.3.1:] C:\Users\igjol\.android\build-cache\0b737312363d299f7c5851973be79fd3dd4b9e0b\output\AndroidManifest.xml:20:5-44
MERGED from [:com.android.support.support-compat-25.3.1:] C:\Users\igjol\.android\build-cache\d5120e22f495e59c3e9c557e171b1be194098a70\output\AndroidManifest.xml:21:5-23:58
MERGED from [:com.android.support.support-core-ui-25.3.1:] C:\Users\igjol\.android\build-cache\8e33e2222076c52b98ec2dacf7d7252c0e46e34f\output\AndroidManifest.xml:21:5-23:58
MERGED from [:com.android.support.support-core-utils-25.3.1:] C:\Users\igjol\.android\build-cache\ee8ebe9bdb14797cb11866c572620f0a1fa43695\output\AndroidManifest.xml:21:5-23:61
MERGED from [:com.android.support.support-fragment-25.3.1:] C:\Users\igjol\.android\build-cache\318b881c0f11950f59b27c18952fdea2bb058cb3\output\AndroidManifest.xml:21:5-23:60
MERGED from [:com.android.support.support-media-compat-25.3.1:] C:\Users\igjol\.android\build-cache\63a492f78ac8a1e5961fea34cdbbabf0bae11fbd\output\AndroidManifest.xml:21:5-23:63
MERGED from [:com.android.support.support-v4-25.3.1:] C:\Users\igjol\.android\build-cache\62b0c18efde074a324b989055d0be3fa87c5825b\output\AndroidManifest.xml:21:5-23:54
MERGED from [:com.android.support.support-vector-drawable-25.3.1:] C:\Users\igjol\.android\build-cache\727a4ae161a37792eb29d52754dafbda8e3d0eca\output\AndroidManifest.xml:20:5-43
MERGED from [:facebook-android-wrapper-7.12.1:] C:\Users\igjol\.android\build-cache\11f3672cc4ce29af16150810449e4f70224c8725\output\AndroidManifest.xml:24:5-26:41
MERGED from [:facebook-applinks:] C:\Users\igjol\.android\build-cache\d59745c1fe614938dfc4ed1b8cba4c8ef73261c1\output\AndroidManifest.xml:24:5-26:41
MERGED from [:facebook-common:] C:\Users\igjol\.android\build-cache\27f0c52cadd7584f699284290b5a37851150dd63\output\AndroidManifest.xml:24:5-26:41
MERGED from [:facebook-core:] C:\Users\igjol\.android\build-cache\43e05f3dcdfb60a6b8a8c4a22494c906b4d299cc\output\AndroidManifest.xml:24:5-26:41
MERGED from [:facebook-login:] C:\Users\igjol\.android\build-cache\eeed42f683254407df5f51222215c2aa4134581e\output\AndroidManifest.xml:24:5-26:41
MERGED from [:facebook-messenger:] C:\Users\igjol\.android\build-cache\93ce31fbab35bfcecdfe7f68a99cfcbcf3ba9ce1\output\AndroidManifest.xml:24:5-26:41
MERGED from [:facebook-places:] C:\Users\igjol\.android\build-cache\d1eb6e28e446014883dee1216b800401925c6bfc\output\AndroidManifest.xml:24:5-26:41
MERGED from [:facebook-share:] C:\Users\igjol\.android\build-cache\aad6bf5965bc1340168148c290d2d156b73daf08\output\AndroidManifest.xml:24:5-26:41
	tools:overrideLibrary
		ADDED from [:com.android.support.appcompat-v7-25.3.1:] C:\Users\igjol\.android\build-cache\09a6b5f911714eb2fc8486690cd0eb12b7bb462f\output\AndroidManifest.xml:23:9-75
	android:targetSdkVersion
		INJECTED from C:\Users\igjol\Documents\lonely_car\Temp\gradleOut\src\main\AndroidManifest.xml
		INJECTED from C:\Users\igjol\Documents\lonely_car\Temp\gradleOut\src\main\AndroidManifest.xml
	android:minSdkVersion
		INJECTED from C:\Users\igjol\Documents\lonely_car\Temp\gradleOut\src\main\AndroidManifest.xml
		INJECTED from C:\Users\igjol\Documents\lonely_car\Temp\gradleOut\src\main\AndroidManifest.xml
meta-data#android.support.VERSION
ADDED from [:com.android.support.animated-vector-drawable-25.3.1:] C:\Users\igjol\.android\build-cache\f4e3f0ebcdcfd45cac4bbbd6d5b0b9f60a65a938\output\AndroidManifest.xml:22:5-24:34
MERGED from [:com.android.support.appcompat-v7-25.3.1:] C:\Users\igjol\.android\build-cache\09a6b5f911714eb2fc8486690cd0eb12b7bb462f\output\AndroidManifest.xml:25:5-27:34
MERGED from [:com.android.support.cardview-v7-25.3.1:] C:\Users\igjol\.android\build-cache\161561bf3cd93a8b812b9189061afa51bd382ae5\output\AndroidManifest.xml:22:5-24:34
MERGED from [:com.android.support.customtabs-25.3.1:] C:\Users\igjol\.android\build-cache\0b737312363d299f7c5851973be79fd3dd4b9e0b\output\AndroidManifest.xml:22:5-24:34
MERGED from [:com.android.support.support-compat-25.3.1:] C:\Users\igjol\.android\build-cache\d5120e22f495e59c3e9c557e171b1be194098a70\output\AndroidManifest.xml:25:5-27:34
MERGED from [:com.android.support.support-core-ui-25.3.1:] C:\Users\igjol\.android\build-cache\8e33e2222076c52b98ec2dacf7d7252c0e46e34f\output\AndroidManifest.xml:25:5-27:34
MERGED from [:com.android.support.support-core-utils-25.3.1:] C:\Users\igjol\.android\build-cache\ee8ebe9bdb14797cb11866c572620f0a1fa43695\output\AndroidManifest.xml:25:5-27:34
MERGED from [:com.android.support.support-fragment-25.3.1:] C:\Users\igjol\.android\build-cache\318b881c0f11950f59b27c18952fdea2bb058cb3\output\AndroidManifest.xml:25:5-27:34
MERGED from [:com.android.support.support-media-compat-25.3.1:] C:\Users\igjol\.android\build-cache\63a492f78ac8a1e5961fea34cdbbabf0bae11fbd\output\AndroidManifest.xml:25:5-27:34
MERGED from [:com.android.support.support-v4-25.3.1:] C:\Users\igjol\.android\build-cache\62b0c18efde074a324b989055d0be3fa87c5825b\output\AndroidManifest.xml:25:5-27:34
MERGED from [:com.android.support.support-vector-drawable-25.3.1:] C:\Users\igjol\.android\build-cache\727a4ae161a37792eb29d52754dafbda8e3d0eca\output\AndroidManifest.xml:22:5-24:34
	android:value
		ADDED from [:com.android.support.animated-vector-drawable-25.3.1:] C:\Users\igjol\.android\build-cache\f4e3f0ebcdcfd45cac4bbbd6d5b0b9f60a65a938\output\AndroidManifest.xml:24:9-31
	android:name
		ADDED from [:com.android.support.animated-vector-drawable-25.3.1:] C:\Users\igjol\.android\build-cache\f4e3f0ebcdcfd45cac4bbbd6d5b0b9f60a65a938\output\AndroidManifest.xml:23:9-47
activity#com.facebook.FacebookActivity
ADDED from [:facebook-common:] C:\Users\igjol\.android\build-cache\27f0c52cadd7584f699284290b5a37851150dd63\output\AndroidManifest.xml:29:9-32:66
	android:configChanges
		ADDED from [:facebook-common:] C:\Users\igjol\.android\build-cache\27f0c52cadd7584f699284290b5a37851150dd63\output\AndroidManifest.xml:31:13-96
	android:theme
		ADDED from [:facebook-common:] C:\Users\igjol\.android\build-cache\27f0c52cadd7584f699284290b5a37851150dd63\output\AndroidManifest.xml:32:13-63
	android:name
		ADDED from [:facebook-common:] C:\Users\igjol\.android\build-cache\27f0c52cadd7584f699284290b5a37851150dd63\output\AndroidManifest.xml:30:13-57
activity#com.facebook.CustomTabMainActivity
ADDED from [:facebook-common:] C:\Users\igjol\.android\build-cache\27f0c52cadd7584f699284290b5a37851150dd63\output\AndroidManifest.xml:33:9-71
	android:name
		ADDED from [:facebook-common:] C:\Users\igjol\.android\build-cache\27f0c52cadd7584f699284290b5a37851150dd63\output\AndroidManifest.xml:33:19-68
provider#com.facebook.internal.FacebookInitProvider
ADDED from [:facebook-core:] C:\Users\igjol\.android\build-cache\43e05f3dcdfb60a6b8a8c4a22494c906b4d299cc\output\AndroidManifest.xml:39:9-42:40
	android:authorities
		ADDED from [:facebook-core:] C:\Users\igjol\.android\build-cache\43e05f3dcdfb60a6b8a8c4a22494c906b4d299cc\output\AndroidManifest.xml:41:13-72
	android:exported
		ADDED from [:facebook-core:] C:\Users\igjol\.android\build-cache\43e05f3dcdfb60a6b8a8c4a22494c906b4d299cc\output\AndroidManifest.xml:42:13-37
	android:name
		ADDED from [:facebook-core:] C:\Users\igjol\.android\build-cache\43e05f3dcdfb60a6b8a8c4a22494c906b4d299cc\output\AndroidManifest.xml:40:13-70
receiver#com.facebook.CurrentAccessTokenExpirationBroadcastReceiver
ADDED from [:facebook-core:] C:\Users\igjol\.android\build-cache\43e05f3dcdfb60a6b8a8c4a22494c906b4d299cc\output\AndroidManifest.xml:44:9-50:20
	android:exported
		ADDED from [:facebook-core:] C:\Users\igjol\.android\build-cache\43e05f3dcdfb60a6b8a8c4a22494c906b4d299cc\output\AndroidManifest.xml:46:13-37
	android:name
		ADDED from [:facebook-core:] C:\Users\igjol\.android\build-cache\43e05f3dcdfb60a6b8a8c4a22494c906b4d299cc\output\AndroidManifest.xml:45:13-86
intent-filter#com.facebook.sdk.ACTION_CURRENT_ACCESS_TOKEN_CHANGED
ADDED from [:facebook-core:] C:\Users\igjol\.android\build-cache\43e05f3dcdfb60a6b8a8c4a22494c906b4d299cc\output\AndroidManifest.xml:47:13-49:29
action#com.facebook.sdk.ACTION_CURRENT_ACCESS_TOKEN_CHANGED
ADDED from [:facebook-core:] C:\Users\igjol\.android\build-cache\43e05f3dcdfb60a6b8a8c4a22494c906b4d299cc\output\AndroidManifest.xml:48:17-95
	android:name
		ADDED from [:facebook-core:] C:\Users\igjol\.android\build-cache\43e05f3dcdfb60a6b8a8c4a22494c906b4d299cc\output\AndroidManifest.xml:48:25-92
